…
>
> blast_db_path <- "/Users/limeybean/Dropbox/CRUX_2.0/ncbi_nt/nt"
>
> seeds_output_path <- "/Users/limeybean/Dropbox/CRUX_2.0/12S_V5F1_local_111122_e300/get_seeds_local/12S_V5F1_filtered_get_seeds_local_output_with_taxonomy.csv"
>
> summary_path <- "/Users/limeybean/Dropbox/CRUX_2.0/12S_V5F1_local_111122_e300/blast_seeds_output/summary.csv"
>
> get_seeds_local(forward_primer_seq,
+                 reverse_primer_seq,
+                 output_directory_path,
+                 metabarcode_name,
+                 accession_taxa_sql_path,
+                 blast_db_path, evalue = 300)
Calling blastn for primers. This may take a long time.
# A tibble: 29,754 × 35
  qseqi…¹ gi    acces…² misma…³ forwa…⁴ forwa…⁵ staxids qseqi…⁶ misma…⁷ rever…⁸ rever…⁹ produ…˟  taxid species super…˟ kingdom
  <chr>   <chr> <chr>   <chr>   <chr>   <chr>   <chr>   <chr>   <chr>   <chr>   <chr>     <dbl>  <int> <chr>   <chr>   <chr>
1 forward 1918… LC5793… 0       453     436     75013   reverse 0       319     336         134 7.50e4 Acanth… Eukary… Metazoa
2 forward 4494… AF0556… 0       587     570     75013   reverse 0       453     470         134 7.50e4 Acanth… Eukary… Metazoa
3 forward 1571… EU1360… 0       632     615     459747  reverse 0       499     516         133 4.60e5 Acanth… Eukary… Metazoa
4 forward 3119… EU2732… 0       633     616     483362  reverse 0       499     516         134 4.83e5 Acanth… Eukary… Metazoa
5 forward 1919… LC5895… 0       447     430     2080250 reverse 0       313     330         134 2.08e6 Acanth… Eukary… Metazoa
6 forward 1918… LC5793… 0       504     487     175431  reverse 0       370     387         134 1.75e5 Acanth… Eukary… Metazoa
7 forward 2249… LC7103… 0       503     486     2745939 reverse 0       369     386         134 2.75e6 Acanth… Eukary… Metazoa
8 forward 1806… MT0254… 0       287     270     1484167 reverse 0       153     170         134 1.48e6 Acanth… Eukary… Metazoa
9 forward 1806… MT0254… 0       291     274     175435  reverse 0       157     174         134 1.75e5 Acanth… Eukary… Metazoa
10 forward 2281… NC_065… 0       633     616     175435  reverse 0       499     516         134 1.75e5 Acanth… Eukary… Metazoa
# … with 29,744 more rows, 19 more variables: phylum <chr>, subphylum <chr>, superclass <chr>, class <chr>, subclass <chr>,
#   order <chr>, family <chr>, subfamily <chr>, genus <chr>, infraorder <chr>, subcohort <chr>, superorder <chr>,
#   superfamily <chr>, tribe <chr>, subspecies <chr>, subgenus <chr>, species.group <chr>, parvorder <chr>, varietas <chr>,
#   and abbreviated variable names ¹​qseqid.x, ²​accession, ³​mismatch_forward, ⁴​forward_start, ⁵​forward_stop, ⁶​qseqid.y,
#   ⁷​mismatch_reverse, ⁸​reverse_start, ⁹​reverse_stop, ˟​product_length, ˟​superkingdom
# ℹ Use `print(n = ...)` to see more rows, and `colnames()` to see all variable names
…
